{
  "name": "add_to_queue",
  "do": "",
  "dont": "",
  "tags": [
    "add",
    "backlog",
    "desktop",
    "watch",
    "display",
    "lineup",
    "monitor plus",
    "queue"
  ],
  "category": [
    "av"
  ],
  "type": "static"
}