{
  "name": "create_new_folder",
  "do": "",
  "dont": "",
  "tags": [
    "folder", "file", "case", "data", "directory", "documents", "repository"
  ],
  "category": [
    "file"
  ],
  "type": "static"
}