{
  "name": "exposure_neg_2",
  "do": "",
  "dont": "",
  "tags": [
    "photography", "photo", "image", "expose", "lens", "light", "negative"
  ],
  "category": [
    "image"
  ],
  "type": "static"
}