{
  "name": "extension",
  "do": "",
  "dont": "",
  "tags": [
    "extension",
    "shape",
    "piece",
    "puzzle",
    "jigsaw",
    "extended"
  ],
  "category": [
    "action"
  ],
  "type": "static"
}