{
  "name": "fiber_new",
  "do": "",
  "dont": "",
  "tags": [
    "new",
    "symbol",
    "character",
    "Fiber",
    "letter",
    "alphabet",
    "text",
    "type",
    "font",
    "network"
  ],
  "category": [
    "av"
  ],
  "type": "static"
}