{
  "name": "gps_not_fixed",
  "do": "",
  "dont": "",
  "tags": [
    "pointer",
    "maps",
    "pin",
    "stop",
    "destination",
    "location",
    "place",
    "tracking",
    "direction"
  ],
  "category": [
    "device"
  ],
  "type": "static"
}