{
  "name": "insert_drive_file",
  "do": "",
  "dont": "",
  "tags": [
    "file",
    "slide",
    "format",
    "doc",
    "insert",
    "sheet",
    "drive"
  ],
  "category": [
    "editor"
  ],
  "type": "static"
}