{
  "name": "keyboard_capslock",
  "do": "",
  "dont": "",
  "tags": [
    "writing", "words", "type", "key", "letter", "words", "lock", "capital", "block"
  ],
  "category": [
    "hardware"
  ],
  "type": "static"
}
