{
  "name": "lock_outline",
  "do": "",
  "dont": "",
  "tags": [
    "private",
    "safe",
    "lock",
    "privacy",
    "connection",
    "locked",
    "secure",
    "key"
  ],
  "category": [
    "action"
  ],
  "type": "static"
}