{
  "name": "mail_outline",
  "do": "",
  "dont": "",
  "tags": [
    "communication", "letter", "package", "parcel", "post", "postcard", "mail"
  ],
  "category": [
    "communication"
  ],
  "type": "static"
}