{
  "name": "merge_type",
  "do": "",
  "dont": "",
  "tags": [
    "margin",
    "arrow",
    "format",
    "text",
    "type",
    "combine"
  ],
  "category": [
    "editor"
  ],
  "type": "static"
}