{
  "name": "my_location",
  "do": "",
  "dont": "",
  "tags": [
    "navigation",
    "maps",
    "pin",
    "stop",
    "destination",
    "location",
    "place",
    "point",
    "direction"
  ],
  "category": [
    "maps"
  ],
  "type": "static"
}