{
  "name": "payment",
  "do": "",
  "dont": "",
  "tags": [
    "charge",
    "money",
    "pay",
    "information",
    "payment",
    "credit",
    "card",
    "info"
  ],
  "category": [
    "action"
  ],
  "type": "static"
}