{
  "name": "title",
  "do": "",
  "dont": "",
  "tags": [
    "symbol",
    "character",
    "t",
    "subject",
    "letter",
    "header",
    "alphabet",
    "text",
    "title",
    "type",
    "font"
  ],
  "category": [
    "editor"
  ],
  "type": "static"
}