{
  "name": "unarchive",
  "do": "",
  "dont": "",
  "tags": [
    "undo",
    "mail",
    "arrow",
    "archive",
    "store",
    "up",
    "inbox"
  ],
  "category": [
    "content"
  ],
  "type": "static"
}