{
  "name": "web",
  "do": "",
  "dont": "",
  "tags": [
    "site",
    "website",
    "Web",
    "www",
    "browser",
    "screen",
    "page",
    "internet"
  ],
  "category": [
    "av"
  ],
  "type": "static"
}