{
  "name": "weekend",
  "do": "",
  "dont": "",
  "tags": [
    "calendar",
    "next",
    "schedule",
    "living",
    "week",
    "lounge",
    "furniture",
    "chair",
    "weekend",
    "couch",
    "room"
  ],
  "category": [
    "content"
  ],
  "type": "static"
}