{
  "name": "service_instance",
  "do": "<ul><li>To represent service instance.</li></ul>",
  "dont": "<ul><li>To represent service.</li></ul>",
  "tags": [
    "service",
    "kubernetes",
    "instance"
  ],
  "category": "virtualization",
  "type": "static"
}
